0 0.211426 0.436632 0.036133 0.105903
0 0.416016 0.197049 0.037109 0.119792
0 0.553711 0.178819 0.041016 0.125000
0 0.706543 0.166667 0.043945 0.131944
0 0.785156 0.438368 0.041016 0.123264
0 0.868652 0.453993 0.026367 0.095486
